^C:\USERS\MARO\SOURCE\REPOS\CLONE_GIT\GESTIONMATRICE\X64\DEBUG\CEXCEPTION.OBJ|C:\USERS\MARO\SOURCE\REPOS\CLONE_GIT\GESTIONMATRICE\X64\DEBUG\CEXCEPTIONDIVISIONZERO.OBJ|C:\USERS\MARO\SOURCE\REPOS\CLONE_GIT\GESTIONMATRICE\X64\DEBUG\CEXCEPTIONFILENOTFOUND.OBJ|C:\USERS\MARO\SOURCE\REPOS\CLONE_GIT\GESTIONMATRICE\X64\DEBUG\CEXCEPTIONFILESYNTAX.OBJ|C:\USERS\MARO\SOURCE\REPOS\CLONE_GIT\GESTIONMATRICE\X64\DEBUG\CEXCEPTIONTYPEMATRICE.OBJ|C:\USERS\MARO\SOURCE\REPOS\CLONE_GIT\GESTIONMATRICE\X64\DEBUG\CMATRICE.OBJ|C:\USERS\MARO\SOURCE\REPOS\CLONE_GIT\GESTIONMATRICE\X64\DEBUG\CMATRICEAVANCEE.OBJ|C:\USERS\MARO\SOURCE\REPOS\CLONE_GIT\GESTIONMATRICE\X64\DEBUG\CMATRICEFICHIER.OBJ|C:\USERS\MARO\SOURCE\REPOS\CLONE_GIT\GESTIONMATRICE\X64\DEBUG\GESTIONMATRICE.OBJ
C:\PROGRAM FILES (X86)\WINDOWS KITS\10\LIB\10.0.17763.0\UM\X64\KERNEL32.LIB
C:\PROGRAM FILES (X86)\WINDOWS KITS\10\LIB\10.0.17763.0\UM\X64\USER32.LIB
C:\PROGRAM FILES (X86)\WINDOWS KITS\10\LIB\10.0.17763.0\UM\X64\GDI32.LIB
C:\PROGRAM FILES (X86)\WINDOWS KITS\10\LIB\10.0.17763.0\UM\X64\WINSPOOL.LIB
C:\PROGRAM FILES (X86)\WINDOWS KITS\10\LIB\10.0.17763.0\UM\X64\COMDLG32.LIB
C:\PROGRAM FILES (X86)\WINDOWS KITS\10\LIB\10.0.17763.0\UM\X64\ADVAPI32.LIB
C:\PROGRAM FILES (X86)\WINDOWS KITS\10\LIB\10.0.17763.0\UM\X64\SHELL32.LIB
C:\PROGRAM FILES (X86)\WINDOWS KITS\10\LIB\10.0.17763.0\UM\X64\OLE32.LIB
C:\PROGRAM FILES (X86)\WINDOWS KITS\10\LIB\10.0.17763.0\UM\X64\OLEAUT32.LIB
C:\PROGRAM FILES (X86)\WINDOWS KITS\10\LIB\10.0.17763.0\UM\X64\UUID.LIB
C:\PROGRAM FILES (X86)\WINDOWS KITS\10\LIB\10.0.17763.0\UM\X64\ODBC32.LIB
C:\PROGRAM FILES (X86)\WINDOWS KITS\10\LIB\10.0.17763.0\UM\X64\ODBCCP32.LIB
C:\USERS\MARO\SOURCE\REPOS\CLONE_GIT\GESTIONMATRICE\X64\DEBUG\CEXCEPTION.OBJ
C:\USERS\MARO\SOURCE\REPOS\CLONE_GIT\GESTIONMATRICE\X64\DEBUG\CEXCEPTIONDIVISIONZERO.OBJ
C:\USERS\MARO\SOURCE\REPOS\CLONE_GIT\GESTIONMATRICE\X64\DEBUG\CEXCEPTIONFILENOTFOUND.OBJ
C:\USERS\MARO\SOURCE\REPOS\CLONE_GIT\GESTIONMATRICE\X64\DEBUG\CEXCEPTIONFILESYNTAX.OBJ
C:\USERS\MARO\SOURCE\REPOS\CLONE_GIT\GESTIONMATRICE\X64\DEBUG\CEXCEPTIONTYPEMATRICE.OBJ
C:\USERS\MARO\SOURCE\REPOS\CLONE_GIT\GESTIONMATRICE\X64\DEBUG\CMATRICE.OBJ
C:\USERS\MARO\SOURCE\REPOS\CLONE_GIT\GESTIONMATRICE\X64\DEBUG\CMATRICEAVANCEE.OBJ
C:\USERS\MARO\SOURCE\REPOS\CLONE_GIT\GESTIONMATRICE\X64\DEBUG\CMATRICEFICHIER.OBJ
C:\USERS\MARO\SOURCE\REPOS\CLONE_GIT\GESTIONMATRICE\X64\DEBUG\GESTIONMATRICE.OBJ
C:\WINDOWS\SYSTEM32\TZRES.DLL
C:\WINDOWS\GLOBALIZATION\SORTING\SORTDEFAULT.NLS
C:\PROGRAM FILES (X86)\MICROSOFT VISUAL STUDIO\2017\COMMUNITY\VC\TOOLS\MSVC\14.16.27023\LIB\X64\MSVCPRTD.LIB
C:\PROGRAM FILES (X86)\MICROSOFT VISUAL STUDIO\2017\COMMUNITY\VC\TOOLS\MSVC\14.16.27023\LIB\X64\MSVCRTD.LIB
C:\PROGRAM FILES (X86)\MICROSOFT VISUAL STUDIO\2017\COMMUNITY\VC\TOOLS\MSVC\14.16.27023\LIB\X64\OLDNAMES.LIB
C:\PROGRAM FILES (X86)\MICROSOFT VISUAL STUDIO\2017\COMMUNITY\VC\TOOLS\MSVC\14.16.27023\LIB\X64\VCRUNTIMED.LIB
C:\PROGRAM FILES (X86)\WINDOWS KITS\10\LIB\10.0.17763.0\UCRT\X64\UCRTD.LIB
^C:\USERS\MARO\SOURCE\REPOS\GESTIONMATRICE\GESTIONMATRICE\X64\DEBUG\CEXCEPTION.OBJ|C:\USERS\MARO\SOURCE\REPOS\GESTIONMATRICE\GESTIONMATRICE\X64\DEBUG\CEXCEPTIONDIVISIONZERO.OBJ|C:\USERS\MARO\SOURCE\REPOS\GESTIONMATRICE\GESTIONMATRICE\X64\DEBUG\CEXCEPTIONFILENOTFOUND.OBJ|C:\USERS\MARO\SOURCE\REPOS\GESTIONMATRICE\GESTIONMATRICE\X64\DEBUG\CEXCEPTIONFILESYNTAX.OBJ|C:\USERS\MARO\SOURCE\REPOS\GESTIONMATRICE\GESTIONMATRICE\X64\DEBUG\CEXCEPTIONTYPEMATRICE.OBJ|C:\USERS\MARO\SOURCE\REPOS\GESTIONMATRICE\GESTIONMATRICE\X64\DEBUG\CMATRICE.OBJ|C:\USERS\MARO\SOURCE\REPOS\GESTIONMATRICE\GESTIONMATRICE\X64\DEBUG\CMATRICEAVANCEE.OBJ|C:\USERS\MARO\SOURCE\REPOS\GESTIONMATRICE\GESTIONMATRICE\X64\DEBUG\CMATRICEFICHIER.OBJ|C:\USERS\MARO\SOURCE\REPOS\GESTIONMATRICE\GESTIONMATRICE\X64\DEBUG\GESTIONMATRICE.OBJ
C:\PROGRAM FILES (X86)\WINDOWS KITS\10\LIB\10.0.17763.0\UM\X64\KERNEL32.LIB
C:\PROGRAM FILES (X86)\WINDOWS KITS\10\LIB\10.0.17763.0\UM\X64\USER32.LIB
C:\PROGRAM FILES (X86)\WINDOWS KITS\10\LIB\10.0.17763.0\UM\X64\GDI32.LIB
C:\PROGRAM FILES (X86)\WINDOWS KITS\10\LIB\10.0.17763.0\UM\X64\WINSPOOL.LIB
C:\PROGRAM FILES (X86)\WINDOWS KITS\10\LIB\10.0.17763.0\UM\X64\COMDLG32.LIB
C:\PROGRAM FILES (X86)\WINDOWS KITS\10\LIB\10.0.17763.0\UM\X64\ADVAPI32.LIB
C:\PROGRAM FILES (X86)\WINDOWS KITS\10\LIB\10.0.17763.0\UM\X64\SHELL32.LIB
C:\PROGRAM FILES (X86)\WINDOWS KITS\10\LIB\10.0.17763.0\UM\X64\OLE32.LIB
C:\PROGRAM FILES (X86)\WINDOWS KITS\10\LIB\10.0.17763.0\UM\X64\OLEAUT32.LIB
C:\PROGRAM FILES (X86)\WINDOWS KITS\10\LIB\10.0.17763.0\UM\X64\UUID.LIB
C:\PROGRAM FILES (X86)\WINDOWS KITS\10\LIB\10.0.17763.0\UM\X64\ODBC32.LIB
C:\PROGRAM FILES (X86)\WINDOWS KITS\10\LIB\10.0.17763.0\UM\X64\ODBCCP32.LIB
C:\USERS\MARO\SOURCE\REPOS\GESTIONMATRICE\GESTIONMATRICE\X64\DEBUG\CEXCEPTION.OBJ
C:\USERS\MARO\SOURCE\REPOS\GESTIONMATRICE\GESTIONMATRICE\X64\DEBUG\CEXCEPTIONDIVISIONZERO.OBJ
C:\USERS\MARO\SOURCE\REPOS\GESTIONMATRICE\GESTIONMATRICE\X64\DEBUG\CEXCEPTIONFILENOTFOUND.OBJ
C:\USERS\MARO\SOURCE\REPOS\GESTIONMATRICE\GESTIONMATRICE\X64\DEBUG\CEXCEPTIONFILESYNTAX.OBJ
C:\USERS\MARO\SOURCE\REPOS\GESTIONMATRICE\GESTIONMATRICE\X64\DEBUG\CEXCEPTIONTYPEMATRICE.OBJ
C:\USERS\MARO\SOURCE\REPOS\GESTIONMATRICE\GESTIONMATRICE\X64\DEBUG\CMATRICE.OBJ
C:\USERS\MARO\SOURCE\REPOS\GESTIONMATRICE\GESTIONMATRICE\X64\DEBUG\CMATRICEAVANCEE.OBJ
C:\USERS\MARO\SOURCE\REPOS\GESTIONMATRICE\GESTIONMATRICE\X64\DEBUG\CMATRICEFICHIER.OBJ
C:\USERS\MARO\SOURCE\REPOS\GESTIONMATRICE\GESTIONMATRICE\X64\DEBUG\GESTIONMATRICE.OBJ
C:\WINDOWS\GLOBALIZATION\SORTING\SORTDEFAULT.NLS
C:\PROGRAM FILES (X86)\MICROSOFT VISUAL STUDIO\2017\COMMUNITY\VC\TOOLS\MSVC\14.16.27023\LIB\X64\MSVCPRTD.LIB
C:\PROGRAM FILES (X86)\MICROSOFT VISUAL STUDIO\2017\COMMUNITY\VC\TOOLS\MSVC\14.16.27023\LIB\X64\MSVCRTD.LIB
C:\PROGRAM FILES (X86)\MICROSOFT VISUAL STUDIO\2017\COMMUNITY\VC\TOOLS\MSVC\14.16.27023\LIB\X64\OLDNAMES.LIB
C:\PROGRAM FILES (X86)\MICROSOFT VISUAL STUDIO\2017\COMMUNITY\VC\TOOLS\MSVC\14.16.27023\LIB\X64\VCRUNTIMED.LIB
C:\PROGRAM FILES (X86)\WINDOWS KITS\10\LIB\10.0.17763.0\UCRT\X64\UCRTD.LIB
C:\PROGRAM FILES (X86)\WINDOWS KITS\10\BIN\10.0.17763.0\X86\RC.EXE
C:\PROGRAM FILES (X86)\MICROSOFT VISUAL STUDIO\2017\COMMUNITY\VC\TOOLS\MSVC\14.16.27023\BIN\HOSTX86\X86\CVTRES.EXE
C:\WINDOWS\SYSTEM32\TZRES.DLL
C:\WINDOWS\SYSTEM32\RSAENH.DLL
^C:\USERS\MARO\SOURCE\REPOS\CLONE1\GESTIONMATRICE\X64\DEBUG\CEXCEPTION.OBJ|C:\USERS\MARO\SOURCE\REPOS\CLONE1\GESTIONMATRICE\X64\DEBUG\CEXCEPTIONDIVISIONZERO.OBJ|C:\USERS\MARO\SOURCE\REPOS\CLONE1\GESTIONMATRICE\X64\DEBUG\CEXCEPTIONFILENOTFOUND.OBJ|C:\USERS\MARO\SOURCE\REPOS\CLONE1\GESTIONMATRICE\X64\DEBUG\CEXCEPTIONFILESYNTAX.OBJ|C:\USERS\MARO\SOURCE\REPOS\CLONE1\GESTIONMATRICE\X64\DEBUG\CEXCEPTIONTYPEMATRICE.OBJ|C:\USERS\MARO\SOURCE\REPOS\CLONE1\GESTIONMATRICE\X64\DEBUG\CMATRICE.OBJ|C:\USERS\MARO\SOURCE\REPOS\CLONE1\GESTIONMATRICE\X64\DEBUG\CMATRICEAVANCEE.OBJ|C:\USERS\MARO\SOURCE\REPOS\CLONE1\GESTIONMATRICE\X64\DEBUG\CMATRICEFICHIER.OBJ|C:\USERS\MARO\SOURCE\REPOS\CLONE1\GESTIONMATRICE\X64\DEBUG\GESTIONMATRICE.OBJ
C:\PROGRAM FILES (X86)\WINDOWS KITS\10\LIB\10.0.17763.0\UM\X64\KERNEL32.LIB
C:\PROGRAM FILES (X86)\WINDOWS KITS\10\LIB\10.0.17763.0\UM\X64\USER32.LIB
C:\PROGRAM FILES (X86)\WINDOWS KITS\10\LIB\10.0.17763.0\UM\X64\GDI32.LIB
C:\PROGRAM FILES (X86)\WINDOWS KITS\10\LIB\10.0.17763.0\UM\X64\WINSPOOL.LIB
C:\PROGRAM FILES (X86)\WINDOWS KITS\10\LIB\10.0.17763.0\UM\X64\COMDLG32.LIB
C:\PROGRAM FILES (X86)\WINDOWS KITS\10\LIB\10.0.17763.0\UM\X64\ADVAPI32.LIB
C:\PROGRAM FILES (X86)\WINDOWS KITS\10\LIB\10.0.17763.0\UM\X64\SHELL32.LIB
C:\PROGRAM FILES (X86)\WINDOWS KITS\10\LIB\10.0.17763.0\UM\X64\OLE32.LIB
C:\PROGRAM FILES (X86)\WINDOWS KITS\10\LIB\10.0.17763.0\UM\X64\OLEAUT32.LIB
C:\PROGRAM FILES (X86)\WINDOWS KITS\10\LIB\10.0.17763.0\UM\X64\UUID.LIB
C:\PROGRAM FILES (X86)\WINDOWS KITS\10\LIB\10.0.17763.0\UM\X64\ODBC32.LIB
C:\PROGRAM FILES (X86)\WINDOWS KITS\10\LIB\10.0.17763.0\UM\X64\ODBCCP32.LIB
C:\USERS\MARO\SOURCE\REPOS\CLONE1\GESTIONMATRICE\X64\DEBUG\CEXCEPTION.OBJ
C:\USERS\MARO\SOURCE\REPOS\CLONE1\GESTIONMATRICE\X64\DEBUG\CEXCEPTIONDIVISIONZERO.OBJ
C:\USERS\MARO\SOURCE\REPOS\CLONE1\GESTIONMATRICE\X64\DEBUG\CEXCEPTIONFILENOTFOUND.OBJ
C:\USERS\MARO\SOURCE\REPOS\CLONE1\GESTIONMATRICE\X64\DEBUG\CEXCEPTIONFILESYNTAX.OBJ
C:\USERS\MARO\SOURCE\REPOS\CLONE1\GESTIONMATRICE\X64\DEBUG\CEXCEPTIONTYPEMATRICE.OBJ
C:\USERS\MARO\SOURCE\REPOS\CLONE1\GESTIONMATRICE\X64\DEBUG\CMATRICE.OBJ
C:\USERS\MARO\SOURCE\REPOS\CLONE1\GESTIONMATRICE\X64\DEBUG\CMATRICEAVANCEE.OBJ
C:\USERS\MARO\SOURCE\REPOS\CLONE1\GESTIONMATRICE\X64\DEBUG\CMATRICEFICHIER.OBJ
C:\USERS\MARO\SOURCE\REPOS\CLONE1\GESTIONMATRICE\X64\DEBUG\GESTIONMATRICE.OBJ
C:\WINDOWS\GLOBALIZATION\SORTING\SORTDEFAULT.NLS
C:\PROGRAM FILES (X86)\MICROSOFT VISUAL STUDIO\2017\COMMUNITY\VC\TOOLS\MSVC\14.16.27023\LIB\X64\MSVCPRTD.LIB
C:\PROGRAM FILES (X86)\MICROSOFT VISUAL STUDIO\2017\COMMUNITY\VC\TOOLS\MSVC\14.16.27023\LIB\X64\MSVCRTD.LIB
C:\PROGRAM FILES (X86)\MICROSOFT VISUAL STUDIO\2017\COMMUNITY\VC\TOOLS\MSVC\14.16.27023\LIB\X64\OLDNAMES.LIB
C:\PROGRAM FILES (X86)\MICROSOFT VISUAL STUDIO\2017\COMMUNITY\VC\TOOLS\MSVC\14.16.27023\LIB\X64\VCRUNTIMED.LIB
C:\PROGRAM FILES (X86)\WINDOWS KITS\10\LIB\10.0.17763.0\UCRT\X64\UCRTD.LIB
C:\PROGRAM FILES (X86)\WINDOWS KITS\10\BIN\10.0.17763.0\X86\RC.EXE
C:\PROGRAM FILES (X86)\MICROSOFT VISUAL STUDIO\2017\COMMUNITY\VC\TOOLS\MSVC\14.16.27023\BIN\HOSTX86\X86\CVTRES.EXE
C:\PROGRAM FILES (X86)\MICROSOFT VISUAL STUDIO\2017\COMMUNITY\VC\TOOLS\MSVC\14.16.27023\BIN\HOSTX86\X86\MSPDBSRV.EXE
C:\WINDOWS\SYSTEM32\TZRES.DLL
C:\PROGRAM FILES (X86)\MICROSOFT VISUAL STUDIO\2017\COMMUNITY\VC\TOOLS\MSVC\14.16.27023\BIN\HOSTX86\X64\VCTIP.EXE
C:\WINDOWS\SYSTEM32\RSAENH.DLL
^C:\USERS\MARO\SOURCE\REPOS\GESTIONMATRICE2\GESTIONMATRICE\X64\DEBUG\CEXCEPTION.OBJ|C:\USERS\MARO\SOURCE\REPOS\GESTIONMATRICE2\GESTIONMATRICE\X64\DEBUG\CEXCEPTIONDIVISIONZERO.OBJ|C:\USERS\MARO\SOURCE\REPOS\GESTIONMATRICE2\GESTIONMATRICE\X64\DEBUG\CEXCEPTIONFILENOTFOUND.OBJ|C:\USERS\MARO\SOURCE\REPOS\GESTIONMATRICE2\GESTIONMATRICE\X64\DEBUG\CEXCEPTIONFILESYNTAX.OBJ|C:\USERS\MARO\SOURCE\REPOS\GESTIONMATRICE2\GESTIONMATRICE\X64\DEBUG\CEXCEPTIONTYPEMATRICE.OBJ|C:\USERS\MARO\SOURCE\REPOS\GESTIONMATRICE2\GESTIONMATRICE\X64\DEBUG\CMATRICE.OBJ|C:\USERS\MARO\SOURCE\REPOS\GESTIONMATRICE2\GESTIONMATRICE\X64\DEBUG\CMATRICEAVANCEE.OBJ|C:\USERS\MARO\SOURCE\REPOS\GESTIONMATRICE2\GESTIONMATRICE\X64\DEBUG\CMATRICEFICHIER.OBJ|C:\USERS\MARO\SOURCE\REPOS\GESTIONMATRICE2\GESTIONMATRICE\X64\DEBUG\GESTIONMATRICE.OBJ
C:\PROGRAM FILES (X86)\WINDOWS KITS\10\LIB\10.0.17763.0\UM\X64\KERNEL32.LIB
C:\PROGRAM FILES (X86)\WINDOWS KITS\10\LIB\10.0.17763.0\UM\X64\USER32.LIB
C:\PROGRAM FILES (X86)\WINDOWS KITS\10\LIB\10.0.17763.0\UM\X64\GDI32.LIB
C:\PROGRAM FILES (X86)\WINDOWS KITS\10\LIB\10.0.17763.0\UM\X64\WINSPOOL.LIB
C:\PROGRAM FILES (X86)\WINDOWS KITS\10\LIB\10.0.17763.0\UM\X64\COMDLG32.LIB
C:\PROGRAM FILES (X86)\WINDOWS KITS\10\LIB\10.0.17763.0\UM\X64\ADVAPI32.LIB
C:\PROGRAM FILES (X86)\WINDOWS KITS\10\LIB\10.0.17763.0\UM\X64\SHELL32.LIB
C:\PROGRAM FILES (X86)\WINDOWS KITS\10\LIB\10.0.17763.0\UM\X64\OLE32.LIB
C:\PROGRAM FILES (X86)\WINDOWS KITS\10\LIB\10.0.17763.0\UM\X64\OLEAUT32.LIB
C:\PROGRAM FILES (X86)\WINDOWS KITS\10\LIB\10.0.17763.0\UM\X64\UUID.LIB
C:\PROGRAM FILES (X86)\WINDOWS KITS\10\LIB\10.0.17763.0\UM\X64\ODBC32.LIB
C:\PROGRAM FILES (X86)\WINDOWS KITS\10\LIB\10.0.17763.0\UM\X64\ODBCCP32.LIB
C:\USERS\MARO\SOURCE\REPOS\GESTIONMATRICE2\GESTIONMATRICE\X64\DEBUG\CEXCEPTION.OBJ
C:\USERS\MARO\SOURCE\REPOS\GESTIONMATRICE2\GESTIONMATRICE\X64\DEBUG\CEXCEPTIONDIVISIONZERO.OBJ
C:\USERS\MARO\SOURCE\REPOS\GESTIONMATRICE2\GESTIONMATRICE\X64\DEBUG\CEXCEPTIONFILENOTFOUND.OBJ
C:\USERS\MARO\SOURCE\REPOS\GESTIONMATRICE2\GESTIONMATRICE\X64\DEBUG\CEXCEPTIONFILESYNTAX.OBJ
C:\USERS\MARO\SOURCE\REPOS\GESTIONMATRICE2\GESTIONMATRICE\X64\DEBUG\CEXCEPTIONTYPEMATRICE.OBJ
C:\USERS\MARO\SOURCE\REPOS\GESTIONMATRICE2\GESTIONMATRICE\X64\DEBUG\CMATRICE.OBJ
C:\USERS\MARO\SOURCE\REPOS\GESTIONMATRICE2\GESTIONMATRICE\X64\DEBUG\CMATRICEAVANCEE.OBJ
C:\USERS\MARO\SOURCE\REPOS\GESTIONMATRICE2\GESTIONMATRICE\X64\DEBUG\CMATRICEFICHIER.OBJ
C:\USERS\MARO\SOURCE\REPOS\GESTIONMATRICE2\GESTIONMATRICE\X64\DEBUG\GESTIONMATRICE.OBJ
C:\WINDOWS\GLOBALIZATION\SORTING\SORTDEFAULT.NLS
C:\PROGRAM FILES (X86)\MICROSOFT VISUAL STUDIO\2017\COMMUNITY\VC\TOOLS\MSVC\14.16.27023\LIB\X64\MSVCPRTD.LIB
C:\PROGRAM FILES (X86)\MICROSOFT VISUAL STUDIO\2017\COMMUNITY\VC\TOOLS\MSVC\14.16.27023\LIB\X64\MSVCRTD.LIB
C:\PROGRAM FILES (X86)\MICROSOFT VISUAL STUDIO\2017\COMMUNITY\VC\TOOLS\MSVC\14.16.27023\LIB\X64\OLDNAMES.LIB
C:\PROGRAM FILES (X86)\MICROSOFT VISUAL STUDIO\2017\COMMUNITY\VC\TOOLS\MSVC\14.16.27023\LIB\X64\VCRUNTIMED.LIB
C:\PROGRAM FILES (X86)\WINDOWS KITS\10\LIB\10.0.17763.0\UCRT\X64\UCRTD.LIB
C:\PROGRAM FILES (X86)\WINDOWS KITS\10\BIN\10.0.17763.0\X86\RC.EXE
C:\PROGRAM FILES (X86)\MICROSOFT VISUAL STUDIO\2017\COMMUNITY\VC\TOOLS\MSVC\14.16.27023\BIN\HOSTX86\X86\CVTRES.EXE
C:\PROGRAM FILES (X86)\MICROSOFT VISUAL STUDIO\2017\COMMUNITY\VC\TOOLS\MSVC\14.16.27023\BIN\HOSTX86\X86\MSPDBSRV.EXE
C:\WINDOWS\SYSTEM32\TZRES.DLL
C:\WINDOWS\SYSTEM32\RSAENH.DLL
